id,total_price,date,type,is_nulled,is_complain,complain_detail,null_detail,caja_id,descuento_id,factura_RUC,factura_razon_social,order_name,pay_amount,pay_change
301,26.7,2018-04-05T10:50:00+00:00,boleta,,,,,1,,,,victor,26.7,0
302,13,2018-04-05T11:44:00+00:00,boleta,,,,,1,,,,andres,20,7
303,12,2018-04-05T11:59:00+00:00,boleta,,,,,1,,,,BARRA,15,3
304,8,2018-04-05T12:05:00+00:00,boleta,,,,,1,,,,SANDRA,10,2
305,20.9,2018-04-05T12:21:00+00:00,boleta,,,,,1,,,,SANDRITA,21,0.1
306,6,2018-04-05T12:38:00+00:00,boleta,,,,,1,,,,"MAMA MAGALY",10,4
307,8,2018-04-05T12:44:00+00:00,boleta,,,,,1,,,,ANDRES,8,0
308,7.9,2018-04-05T13:04:00+00:00,boleta,,,,,1,,,,"BARRA ",10,2.1
309,21,2018-04-05T13:11:00+00:00,boleta,,,,,1,,,,"mesa 2",21,0
310,5,2018-04-05T13:48:00+00:00,boleta,,,,,1,,,,Cliente,5,0
311,8.9,2018-04-05T14:55:00+00:00,boleta,,,,,1,,,,Nicco,10,1.1
312,23.8,2018-04-05T15:46:00+00:00,boleta,,,,,1,,,,Owen,50,26.2
313,13.9,2018-04-05T15:52:00+00:00,boleta,,,,,1,,,,Frida,20,6.1
314,15.8,2018-04-05T16:17:00+00:00,boleta,,,,,1,,,,"mesa 2",15.8,0
315,11.8,2018-04-05T16:30:00+00:00,boleta,,,,,1,,,,SUSAN,11.8,0
316,33.8,2018-04-05T17:18:00+00:00,boleta,,,,,1,,,,"mesa 3",33.8,0
317,22,2018-04-05T18:50:00+00:00,boleta,,,,,1,,,,"MESA 5",22,0
318,24.9,2018-04-05T19:22:00+00:00,boleta,,,,,1,,,,"MESA 3",24.9,0
319,8,2018-04-05T19:23:00+00:00,boleta,,,,,1,,,,"FIORELLA - LLEVAR",8,0
320,17.8,2018-04-05T19:32:00+00:00,boleta,,,,,1,,,,"MESA 1",17.8,0
321,8,2018-04-05T20:26:00+00:00,boleta,,,,,1,,,,"MESA 4",20,12
323,30,2018-04-05T20:38:00+00:00,boleta,,,,,1,,,,paulo,100,70
324,45,2018-04-05T21:36:00+00:00,boleta,,,,,1,,,,"mesa 2",45,0
325,9.9,2018-04-05T21:39:00+00:00,boleta,,,,,1,,,,barra,10,0.1
326,9.9,2018-04-05T21:41:00+00:00,boleta,,,,,1,,,,"mesa 1",50,40.1
327,15,2018-04-05T21:44:00+00:00,boleta,,,,,1,,,,piero,20,5
