id,total_price,date,type,is_nulled,is_complain,complain_detail,null_detail,caja_id,descuento_id,factura_RUC,factura_razon_social,order_name,pay_amount,pay_change
343,5.9,2018-04-07T08:29:00+00:00,boleta,,,,,1,,,,Sofia,6,0.1
344,11.8,2018-04-07T10:39:00+00:00,boleta,,,,,1,,,,MIRIAN,11.8,0
345,39.9,2018-04-07T11:27:00+00:00,boleta,,,,,1,,,,PAULO,39.9,0
346,5.9,2018-04-07T11:41:00+00:00,boleta,,,,,1,,,,"BARRA - LLEVAR",5.9,0
347,15.8,2018-04-07T12:23:00+00:00,boleta,,,,,1,,,,"mesa 3",15.8,0
348,39.7,2018-04-07T12:24:00+00:00,boleta,,,,,1,,,,"MESA 4",39.7,0
349,8.9,2018-04-07T12:48:00+00:00,boleta,,,,,1,,,,"KAREN VENTANILLA 8 INTERBANK",8.9,0
350,9.9,2018-04-07T12:53:00+00:00,boleta,,,,,1,,,,"MESA 4",9.9,0
351,24.9,2018-04-07T16:48:00+00:00,boleta,,,,,1,,,,"mesa 4",24.9,0
352,19.8,2018-04-07T16:49:00+00:00,boleta,,,,,1,,,,"MESA 3",19.8,0
353,5.9,2018-04-07T16:50:00+00:00,boleta,,,,,1,,,,"JUAN - LLEVAR",5.9,0
354,22.9,2018-04-07T18:47:00+00:00,boleta,,,,,1,,,,"MESA 3",22.9,0
355,23.9,2018-04-07T18:53:00+00:00,boleta,,,,,1,,,,"MESA 2",23.9,0
356,9.9,2018-04-07T18:59:00+00:00,boleta,,,,,1,,,,"MIRIAN - LLEVAR",9.9,0
358,33.9,2018-04-07T19:34:00+00:00,boleta,,,,,1,,,,"mesa 4",33.9,0
359,24.8,2018-04-07T19:54:00+00:00,boleta,,,,,1,,,,"mesa 5",24.8,0
360,11.8,2018-04-07T21:10:00+00:00,boleta,,,,,1,,,,"mesa 1",20,8.2
361,15.8,2018-04-07T21:22:00+00:00,boleta,,,,,1,,,,"mesa 3",15.8,0
362,8,2018-04-07T22:46:00+00:00,boleta,,,,,1,,,,"mesa 2",8,0
363,58.9,2018-04-07T22:56:00+00:00,boleta,,,,,1,,,,"mesa 5",58.9,0
